<?xml version="1.0" encoding="utf-8"?>
<!-- Generator: Adobe Illustrator 17.1.0, SVG Export Plug-In . SVG Version: 6.00 Build 0)  -->
<!DOCTYPE svg PUBLIC "-//W3C//DTD SVG 1.1//EN" "http://www.w3.org/Graphics/SVG/1.1/DTD/svg11.dtd">
<svg version="1.1" id="Слой_1" xmlns="http://www.w3.org/2000/svg" xmlns:xlink="http://www.w3.org/1999/xlink" x="0px" y="0px"
	 viewBox="0 0 945.3 1217" enable-background="new 0 0 945.3 1217" xml:space="preserve">
<path fill-rule="evenodd" clip-rule="evenodd" fill="#E6EEFD" d="M0,0c0,0-3.7,128.1,55,172c113.5,84.9,214.9-2.8,320,100
	c111,108.6,202.1,56.9,334,114c148.5,64.3,285.5,172.6,219,406c-41.5,145.8-190.8,258.8-516,192C128.1,925.7,0,1217,0,1217V0z"/>
</svg>
